<svg width="11" height="20" viewBox="0 0 11 20" fill="none" xmlns="http://www.w3.org/2000/svg">
<path d="M1 1.48L9.28 10L0.999999 18.55L1.27 19L10 10L1.27 1L1 1.48Z" fill="#0BE2EA" stroke="#0BE2EA"/>
</svg>
